…
What just happened? We read-in data on all road crashes recorded by the police in 2017 across Great Britain. The dataset contains 32 columns (variables) for 129,982 crashes.

This work was done by `read_accidents(format = FALSE)`, which imported the "raw" Stats19 data without cleaning messy column names or re-categorising the outputs. `format_accidents()` automates the process of matching column names with variable names and labels in a [`.xls` file](http://data.dft.gov.uk/road-accidents-safety-data/Road-Accident-Safety-Data-Guide.xls) provided by the DfT. This means `crashes_2017` is much more usable than `crashes_2017_raw`, as shown below, which shows some key variables in the messy and clean datasets:

``` r
crashes_2017_raw[c(7, 18, 23, 25)]
#> # A tibble: 129,982 x 4
#>    Accident_Severity Speed_limit `Pedestrian_Crossing-Hum… Light_Conditions
#>                <int>       <int>                     <int>            <int>
#>  1                 1          30                         0                4
#>  2                 3          30                         0                4
#>  3                 3          30                         0                4
#>  4                 3          30                         0                4
#>  5                 2          20                         0                4
#>  6                 3          30                         0                4
#>  7                 3          40                         0                4
#>  8                 3          30                         2                4
#>  9                 2          50                         0                4
#> 10                 2          30                         0                4
#> # ... with 129,972 more rows
crashes_2017[c(7, 18, 23, 25)]
#> # A tibble: 129,982 x 4
#>    accident_severity speed_limit pedestrian_crossing_hu… light_conditions  
#>    <chr>                   <int> <chr>                   <chr>             
#>  1 Fatal                      30 None within 50 metres   Darkness - lights…
#>  2 Slight                     30 None within 50 metres   Darkness - lights…
#>  3 Slight                     30 None within 50 metres   Darkness - lights…
#>  4 Slight                     30 None within 50 metres   Darkness - lights…
#>  5 Serious                    20 None within 50 metres   Darkness - lights…
#>  6 Slight                     30 None within 50 metres   Darkness - lights…
#>  7 Slight                     40 None within 50 metres   Darkness - lights…
#>  8 Slight                     30 Control by other autho… Darkness - lights…
#>  9 Serious                    50 None within 50 metres   Darkness - lights…
#> 10 Serious                    30 None within 50 metres   Darkness - lights…
#> # ... with 129,972 more rows
```
…
The results show that there were 170,993 casualties reported by the police in the STATS19 dataset in 2017, and 16 columns (variables). Values for a sample of these columns are shown below:

``` r
casualties_2017[c(4, 5, 6, 14)]
#> # A tibble: 170,993 x 4
#>    casualty_class  sex_of_casualty age_of_casualty casualty_type           
#>    <chr>           <chr>                     <int> <chr>                   
#>  1 Passenger       Female                       18 Car occupant            
#>  2 Driver or rider Male                         19 Motorcycle 50cc and und…
#>  3 Passenger       Male                         18 Motorcycle 50cc and und…
#>  4 Passenger       Female                       33 Car occupant            
#>  5 Driver or rider Female                       31 Car occupant            
#>  6 Passenger       Male                          3 Car occupant            
#>  7 Pedestrian      Male                         45 Pedestrian              
#>  8 Driver or rider Male                         14 Motorcycle 125cc and un…
#>  9 Driver or rider Female                       58 Car occupant            
#> 10 Driver or rider Male                         27 Car occupant            
#> # ... with 170,983 more rows
```
…
The results show that there were 238,926 vehicles involved in crashes reported by the police in the STATS19 dataset in 2017, with 23 columns (variables). Values for a sample of these columns are shown below:

``` r
vehicles_2017[c(3, 14:16)]
#> # A tibble: 238,926 x 4
#>    vehicle_type          journey_purpose_of_dr… sex_of_driver age_of_driver
#>    <chr>                 <chr>                  <chr>                 <int>
#>  1 Car                   Not known              Male                     24
#>  2 Motorcycle 50cc and … Not known              Male                     19
#>  3 Car                   Not known              Male                     33
#>  4 Car                   Not known              Male                     40
#>  5 Car                   Not known              Not known                -1
#>  6 Car                   Not known              Male                     35
#>  7 Car                   Not known              Female                   31
#>  8 Car                   Not known              Female                   37
#>  9 Car                   Not known              Female                   29
#> 10 Car                   Not known              Male                     78
#> # ... with 238,916 more rows
```
…
